<svg width="9" height="50" viewBox="0 0 9 50" fill="none" xmlns="http://www.w3.org/2000/svg">
<path d="M-5.81741e-05 50L-5.81741e-05 0H8.92188V3.90334H4.83266L4.83266 46.8401H8.92188V50H-5.81741e-05Z" fill="#8F392A"/>
</svg>
